embed with the Petersens - murmuring in the background
…
The slightly more cumbersome solution is to organize the links as very short paths, distinguished by a grouping variable, in preparation for plotly::add_paths():

petersen %>%
  activate(links) %>%
  as_tibble() %>%
  mutate(link = row_number()) %>%
  gather(end, node, from, to) %>%
  left_join(nodes, by = "node") %>%
  group_by(link) %>%
  print() -> links

## # A tibble: 30 x 6
## # Groups:   link [15]
##     link end    node     x     y     z
##    <int> <chr> <int> <dbl> <dbl> <dbl>
##  1     1 from      1  10.1  17.0  17.4
##  2     2 from      1  10.1  17.0  17.4
##  3     3 from      1  10.1  17.0  17.4
##  4     4 from      2  10.9  18.4  18.1
##  5     5 from      2  10.9  18.4  18.1
##  6     6 from      3  12.0  18.2  17.6
##  7     7 from      3  12.0  18.2  17.6
##  8     8 from      4  11.6  18.1  16.1
##  9     9 from      4  11.6  18.1  16.1
## 10    10 from      5  10.0  17.8  16.2
## # … with 20 more rows
…
