multidimensional scaling of variables, and rank correlations - murmuring in the background
…
Since the integer rankings were subsetted from the full international data set, they are not contiguous (i.e. some integers between rankings never appear). To resolve this, i’ll recalibrate the rankings by matching each vector of ranks to the vector of its sorted unique values:

library(dplyr)
qswurus20 %>%
  select(institution, starts_with("rk_")) %>%
  mutate_at(
    vars(starts_with("rk_")),
    ~ match(., sort(unique(as.numeric(.))))
  ) %>%
  print() -> qswurus20

## # A tibble: 38 x 7
##    institution rk_academic rk_employer rk_ratio rk_citations
##    <chr>             <int>       <int>    <int>        <int>
##  1 MASSACHUSE…           3           2        6            3
##  2 STANFORD U…           2           3        4            5
##  3 HARVARD UN…           1           1       11            4
##  4 CALIFORNIA…          12          14        1            2
##  5 UNIVERSITY…           9          11       13           12
##  6 PRINCETON …           7           7       18            1
##  7 CORNELL UN…          11          13       22            7
##  8 UNIVERSITY…          14          12        8           17
##  9 YALE UNIVE…           6           4        2           24
## 10 COLUMBIA U…           8           8        7           25
## # … with 28 more rows, and 2 more variables: rk_intl_faculty <int>,
## #   rk_intl_students <int>
…
