Sampling uniformly from an embedded Klein bottle - murmuring in the background
…
## Warning: funs() is soft deprecated as of dplyr 0.8.0
## please use list() instead
## 
## # Before:
## funs(name = f(.)
## 
## # After: 
## list(name = ~f(.))
## This warning is displayed once per session.

## # A tibble: 120 x 3
##    theta      x       y
##    <dbl>  <dbl>   <dbl>
##  1 5.85   0.971 -0.531 
##  2 1.72  -0.234  1.09  
##  3 0.396  1.15   0.597 
##  4 3.56  -0.949 -0.414 
##  5 2.52  -0.974  0.399 
##  6 3.65  -0.955 -0.478 
##  7 2.11  -0.611  0.888 
##  8 3.21  -0.880 -0.0948
##  9 4.22  -0.533 -0.699 
## 10 4.08  -0.467 -0.765 
## # … with 110 more rows
…
Sampling is another matter. Though we know the embedding warps the parameter space, stretching parts of it while compressing others, it’s tempting to presuppose that this warping will not vary too much, and just take uniform samples from the parameter space and map them to the ambient space. Here’s where that gets us, without adding additional noise:

f_klein <- param_klein(r = .75)
tibble(theta = runif(360, 0, 2*pi), phi = runif(360, 0, 2*pi)) %>%
  f_klein() %>%
  print() %>%
  pairs(asp = 1, pch = 19, cex = .5, col = "#00000077")

## # A tibble: 360 x 4
##          w       x        y       z
##      <dbl>   <dbl>    <dbl>   <dbl>
##  1  0.167  -1.74   -0.0490   0.0445
##  2 -0.0648 -1.68   -0.218    0.227 
##  3  1.03    0.213  -0.744   -0.0761
##  4  1.30    0.549   0.615    0.125 
##  5 -0.142  -0.219  -0.0620   0.114 
##  6  1.57    0.384   0.423    0.0510
##  7  0.156  -0.196  -0.0217   0.0105
##  8  0.171   0.819   0.568    0.462 
##  9 -0.231   0.0967 -0.00614 -0.0306
## 10  1.20    1.13    0.346    0.137 
## # … with 350 more rows
…
Here’s how the Jacobian determinant — that is, the expanding and contracting of area by the parameterization — depends on \(\theta\):

j_klein <- jacobian_klein(r = .75)
tibble(theta = seq(0, 2*pi, length.out = 60)) %>%
  mutate(jacobian = j_klein(theta)) %>%
  print() %>%
  ggplot(aes(x = theta, y = jacobian)) +
  ylim(c(0, NA)) +
  geom_line() +
  geom_area(fill = "#00000077")

## # A tibble: 60 x 2
##    theta jacobian
##    <dbl>    <dbl>
##  1 0         1.31
##  2 0.106     1.31
##  3 0.213     1.30
##  4 0.319     1.29
##  5 0.426     1.27
##  6 0.532     1.24
##  7 0.639     1.21
##  8 0.745     1.18
##  9 0.852     1.14
## 10 0.958     1.10
## # … with 50 more rows
…
We can compare this to the naïve sampler above that did not account for warping by the parameterization:

sample_klein(n = 360, r = .75) %>%
  print() %>%
  pairs(asp = 1, pch = 19, cex = .5, col = "#00000077")

## # A tibble: 360 x 4
##          w      x      y       z
##      <dbl>  <dbl>  <dbl>   <dbl>
##  1  1.05   -0.962  0.575 -0.223 
##  2  1.20    0.670 -0.631 -0.164 
##  3  1.23    0.737  0.591  0.164 
##  4  1.58   -0.720  0.155 -0.0338
##  5 -0.131  -0.300  0.182 -0.278 
##  6  0.479  -0.568  0.639 -0.297 
##  7 -0.280   0.806  0.426  0.599 
##  8 -1.13   -0.603  0.169 -0.675 
##  9  0.0476 -0.966  0.543 -0.517 
## 10  0.125   0.852 -0.558 -0.482 
## # … with 350 more rows
…
