the dimensions of (abstracted) polyamory literature - murmuring in the background
…
crunch

Here is the book list obtained from the scraping script, slightly tidied, using the identifying string of the URL as a unique identifier:

library(tidyverse)
read_rds(here::here("supplementary/goodreads-polyamory-booklist.rds")) %>%
  ungroup() %>%
  select(title = title_page, id = link, lists, genres, description) %>%
  mutate(short_title = str_replace(title, "(: .+$)|( \\(.+$)", "")) %>%
  mutate(id = str_replace(id, "/book/show/([0-9]+)[^0-9].*$", "\\1")) %>%
  mutate(id = as.integer(id)) %>%
  print() -> polyamory_booklist

## # A tibble: 1,179 x 6
##    title           id lists      genres      description     short_title   
##    <chr>        <int> <chr>      <chr>       <chr>           <chr>         
##  1 100 Love …  1.13e4 Books on … Poetry|Cla… Against the ba… 100 Love Sonn…
##  2 199 Ways …  1.61e7 Sex, Love… ""          199 Ways To Im… 199 Ways To I…
##  3 30th Cent…  3.53e7 Ménage Po… Science Fi… CAPTAIN JENNIF… 30th Century  
##  4 A + E 4ev…  1.24e7 The Most … Sequential… Asher Machnik … A + E 4ever   
##  5 A Bear's …  2.73e7 Ménage Po… Erotica|Me… Most days, Oli… A Bear's Jour…
##  6 A Bear's …  4.06e7 Polyfi Tr… Paranormal… Most days, Oli… A Bear's Jour…
##  7 A Bear's …  2.71e7 Ménage Po… Erotica|Me… Charlotte “Cha… A Bear's Mercy
##  8 A Bear's …  4.06e7 Polyfi Tr… Menage|M M… Charlotte “Cha… A Bear's Mercy
##  9 A Bear's …  2.68e7 Ménage Po… Erotica|Me… Quinn Taylor h… A Bear's Neme…
## 10 A Bear's …  4.05e7 Polyfi Tr… Fantasy|Pa… Quinn Taylor h… A Bear's Neme…
## # … with 1,169 more rows
…
word counts

Adapting a workflow from the tidytext book, i first “unnest” the book list—in the tidyr sense, except using a tidytext method specific to strings of written language. “Stop” words are articles, prepositions, and other words that add little to no value to a text analysis; instances of them in the unnested data are excluded via an anti-join. Finally, i count the number of times each word is used in each description as a new variable \(n\).

library(tidytext)
polyamory_booklist %>%
  mutate(clean_descr = str_replace_all(description, "[^[:alpha:]\\s]", " ")) %>%
  mutate(clean_descr = str_trim(clean_descr)) %>%
  select(-description) %>%
  unnest_tokens(word, clean_descr) %>%
  anti_join(stop_words, by = "word") %>%
  count(title, short_title, id, lists, genres, word, name = "n") %>%
  print() -> polybooks_wordcounts

## # A tibble: 76,194 x 7
##    title       short_title       id lists     genres         word         n
##    <chr>       <chr>          <int> <chr>     <chr>          <chr>    <int>
##  1 100 Love S… 100 Love Sonn… 11339 Books on… Poetry|Classi… backdrop     1
##  2 100 Love S… 100 Love Sonn… 11339 Books on… Poetry|Classi… beloved      1
##  3 100 Love S… 100 Love Sonn… 11339 Books on… Poetry|Classi… celebra…     1
##  4 100 Love S… 100 Love Sonn… 11339 Books on… Poetry|Classi… de           1
##  5 100 Love S… 100 Love Sonn… 11339 Books on… Poetry|Classi… delicate     1
##  6 100 Love S… 100 Love Sonn… 11339 Books on… Poetry|Classi… flowers      1
##  7 100 Love S… 100 Love Sonn… 11339 Books on… Poetry|Classi… hot          1
##  8 100 Love S… 100 Love Sonn… 11339 Books on… Poetry|Classi… isla         1
##  9 100 Love S… 100 Love Sonn… 11339 Books on… Poetry|Classi… love         2
## 10 100 Love S… 100 Love Sonn… 11339 Books on… Poetry|Classi… matilde      1
## # … with 76,184 more rows

A couple more word counts that will be useful downstream are the number \(d\) of book descriptions that use each word and the total number \(m\) of uses across the corpus.

polybooks_wordcounts %>%
  left_join(
    polybooks_wordcounts %>%
      group_by(word) %>%
      summarize(d = n(), m = sum(n)),
    by = c("word")
  ) %>%
  filter(m >= 12) %>%
  arrange(desc(d), desc(n)) %>%
  print() -> polybooks_wordusages

## # A tibble: 48,020 x 9
##    title      short_title      id lists  genres     word      n     d     m
##    <chr>      <chr>         <int> <chr>  <chr>      <chr> <int> <int> <int>
##  1 What Love… What Love Is 2.95e7 Best … Nonfictio… love     16   495  1226
##  2 The Four … The Four Lo… 3.06e4 Books… Christian… love     14   495  1226
##  3 The Futur… The Future … 7.21e5 Books… Relations… love     14   495  1226
##  4 Why We Lo… Why We Love  1.32e5 Sex, … Psycholog… love     14   495  1226
##  5 Longing f… Longing for… 1.73e7 Sex, … ""         love     13   495  1226
##  6 The Art o… The Art of … 1.41e4 Books… Psycholog… love     13   495  1226
##  7 Rogue Eve… Rogue Ever … 4.52e7 FFF+ … Romance|C… love     12   495  1226
##  8 Ardently:… Ardently     2.56e7 Books… Classics|… love     11   495  1226
##  9 Love Magi… Love Magic   1.36e7 Sex, … ""         love     10   495  1226
## 10 In Praise… In Praise o… 1.36e7 Books… Philosoph… love      9   495  1226
## # … with 48,010 more rows

2,197 distinct words appear in these descriptions (omitting the stop words).
Happily, the most prevalent (and, it turns out, most frequent) word in these descriptions is “love”. <83

relative frequencies

Its ubiquity makes “love” unlikely to be an effective token for the purpose of mapping this book collection in coordinate space: If a feature describes everything, then it describes nothing. The traditional usefulness weighting on words is instead the term frequency–inverse document frequency, or tf-idf. This is the product of two quotients: the term frequency \(\frac{n}{N}\) for a given book, where \(N\) is the number of words in its description; and (the logarithm of) the inverse of the document frequency \(\frac{d}{D}\), where \(D\) is the number of books (descriptions) in the corpus. The tidytext package provides a helper function for this step, bind_tf_idf(), which obviates the previous chunk. Additionally i’ve filtered out the less discriminating words (having maximum td-idf at most \(0.1\)):

polybooks_wordcounts %>%
  bind_tf_idf(word, id, n) %>%
  group_by(word) %>% filter(max(tf_idf) > .1) %>% ungroup() %>%
  select(title, short_title, id, lists, genres, word, tf_idf) %>%
  print() -> polybooks_tfidf

## # A tibble: 59,759 x 7
##    title       short_title       id lists     genres         word    tf_idf
##    <chr>       <chr>          <int> <chr>     <chr>          <chr>    <dbl>
##  1 100 Love S… 100 Love Sonn… 11339 Books on… Poetry|Classi… backdr… 0.189 
##  2 100 Love S… 100 Love Sonn… 11339 Books on… Poetry|Classi… beloved 0.136 
##  3 100 Love S… 100 Love Sonn… 11339 Books on… Poetry|Classi… celebr… 0.171 
##  4 100 Love S… 100 Love Sonn… 11339 Books on… Poetry|Classi… de      0.136 
##  5 100 Love S… 100 Love Sonn… 11339 Books on… Poetry|Classi… delica… 0.162 
##  6 100 Love S… 100 Love Sonn… 11339 Books on… Poetry|Classi… flowers 0.189 
##  7 100 Love S… 100 Love Sonn… 11339 Books on… Poetry|Classi… hot     0.0738
##  8 100 Love S… 100 Love Sonn… 11339 Books on… Poetry|Classi… isla    0.212 
##  9 100 Love S… 100 Love Sonn… 11339 Books on… Poetry|Classi… love    0.0573
## 10 100 Love S… 100 Love Sonn… 11339 Books on… Poetry|Classi… matilde 0.235 
## # … with 59,749 more rows
…
